simulation/qsim/fakequidditch.msim.vcd
$comment
	File created using the following command:
		vcd file fakequidditch.msim.vcd -direction
$end
$date
	Wed May 01 16:23:49 2019
$end
$version
	ModelSim Version 10.1d
$end
$timescale
	1ps
$end
$scope module fakequidditch_vlg_vec_tst $end
$var reg 1 ! clk $end
$var wire 1 " clk_out $end
$var wire 1 # sampler $end
$scope module i1 $end
$var wire 1 $ gnd $end
$var wire 1 % vcc $end
$var wire 1 & unknown $end
$var tri1 1 ' devclrn $end
$var tri1 1 ( devpor $end
$var tri1 1 ) devoe $end
$var wire 1 * clk_out~output_o $end
$var wire 1 + clk~input_o $end
$var wire 1 , cd|Add1~121_sumout $end
$var wire 1 - cd|Add1~122 $end
$var wire 1 . cd|Add1~117_sumout $end
$var wire 1 / cd|Add1~118 $end
$var wire 1 0 cd|Add1~113_sumout $end
$var wire 1 1 cd|Add1~114 $end
$var wire 1 2 cd|Add1~109_sumout $end
$var wire 1 3 cd|Add1~110 $end
$var wire 1 4 cd|Add1~105_sumout $end
$var wire 1 5 cd|Add1~106 $end
$var wire 1 6 cd|Add1~101_sumout $end
$var wire 1 7 cd|Add1~102 $end
$var wire 1 8 cd|Add1~97_sumout $end
$var wire 1 9 cd|Add1~98 $end
$var wire 1 : cd|Add1~93_sumout $end
$var wire 1 ; cd|Add1~94 $end
$var wire 1 < cd|Add1~89_sumout $end
$var wire 1 = cd|Add1~90 $end
$var wire 1 > cd|Add1~85_sumout $end
$var wire 1 ? cd|Add1~86 $end
$var wire 1 @ cd|Add1~81_sumout $end
$var wire 1 A cd|Add1~82 $end
$var wire 1 B cd|Add1~77_sumout $end
$var wire 1 C cd|Add1~78 $end
$var wire 1 D cd|Add1~73_sumout $end
$var wire 1 E cd|Add1~74 $end
$var wire 1 F cd|Add1~69_sumout $end
$var wire 1 G cd|Add1~70 $end
$var wire 1 H cd|Add1~65_sumout $end
$var wire 1 I cd|Add1~66 $end
$var wire 1 J cd|Add1~61_sumout $end
$var wire 1 K cd|Add1~62 $end
$var wire 1 L cd|Add1~57_sumout $end
$var wire 1 M cd|Add1~58 $end
$var wire 1 N cd|Add1~53_sumout $end
$var wire 1 O cd|Add1~54 $end
$var wire 1 P cd|Add1~49_sumout $end
$var wire 1 Q cd|Add1~50 $end
$var wire 1 R cd|Add1~45_sumout $end
$var wire 1 S cd|Add1~46 $end
$var wire 1 T cd|Add1~41_sumout $end
$var wire 1 U cd|Add1~42 $end
$var wire 1 V cd|Add1~37_sumout $end
$var wire 1 W cd|Add1~38 $end
$var wire 1 X cd|Add1~33_sumout $end
$var wire 1 Y cd|Add1~34 $end
$var wire 1 Z cd|Add1~29_sumout $end
$var wire 1 [ cd|Add1~30 $end
$var wire 1 \ cd|Add1~25_sumout $end
$var wire 1 ] cd|Add1~26 $end
$var wire 1 ^ cd|Add1~21_sumout $end
$var wire 1 _ cd|Add1~22 $end
$var wire 1 ` cd|Add1~17_sumout $end
$var wire 1 a cd|Add1~18 $end
$var wire 1 b cd|Add1~13_sumout $end
$var wire 1 c cd|Add1~14 $end
$var wire 1 d cd|Add1~9_sumout $end
$var wire 1 e cd|Add1~10 $end
$var wire 1 f cd|Add1~5_sumout $end
$var wire 1 g cd|Add1~6 $end
$var wire 1 h cd|Add1~1_sumout $end
$var wire 1 i cd|Equal0~0_combout $end
$var wire 1 j cd|Equal0~1_combout $end
$var wire 1 k cd|Equal0~2_combout $end
$var wire 1 l cd|Equal0~3_combout $end
$var wire 1 m cd|Equal0~4_combout $end
$var wire 1 n cd|Add1~2 $end
$var wire 1 o cd|Add1~125_sumout $end
$var wire 1 p cd|Equal0~5_combout $end
$var wire 1 q cd|Equal0~6_combout $end
$var wire 1 r cd|clk_out~q $end
$var wire 1 s cd|counter_clk [31] $end
$var wire 1 t cd|counter_clk [30] $end
$var wire 1 u cd|counter_clk [29] $end
$var wire 1 v cd|counter_clk [28] $end
$var wire 1 w cd|counter_clk [27] $end
$var wire 1 x cd|counter_clk [26] $end
$var wire 1 y cd|counter_clk [25] $end
$var wire 1 z cd|counter_clk [24] $end
$var wire 1 { cd|counter_clk [23] $end
$var wire 1 | cd|counter_clk [22] $end
$var wire 1 } cd|counter_clk [21] $end
$var wire 1 ~ cd|counter_clk [20] $end
$var wire 1 !! cd|counter_clk [19] $end
$var wire 1 "! cd|counter_clk [18] $end
$var wire 1 #! cd|counter_clk [17] $end
$var wire 1 $! cd|counter_clk [16] $end
$var wire 1 %! cd|counter_clk [15] $end
$var wire 1 &! cd|counter_clk [14] $end
$var wire 1 '! cd|counter_clk [13] $end
$var wire 1 (! cd|counter_clk [12] $end
$var wire 1 )! cd|counter_clk [11] $end
$var wire 1 *! cd|counter_clk [10] $end
$var wire 1 +! cd|counter_clk [9] $end
$var wire 1 ,! cd|counter_clk [8] $end
$var wire 1 -! cd|counter_clk [7] $end
$var wire 1 .! cd|counter_clk [6] $end
$var wire 1 /! cd|counter_clk [5] $end
$var wire 1 0! cd|counter_clk [4] $end
$var wire 1 1! cd|counter_clk [3] $end
$var wire 1 2! cd|counter_clk [2] $end
$var wire 1 3! cd|counter_clk [1] $end
$var wire 1 4! cd|counter_clk [0] $end
$upscope $end
$upscope $end
$enddefinitions $end
#0
$dumpvars
0!
0"
x#
0$
1%
x&
1'
1(
1)
0*
0+
1,
0-
0.
0/
00
01
02
03
04
05
06
07
08
09
0:
0;
0<
0=
0>
0?
0@
0A
0B
0C
0D
0E
0F
0G
0H
0I
0J
0K
0L
0M
0N
0O
0P
0Q
0R
0S
0T
0U
0V
0W
0X
0Y
0Z
0[
0\
0]
0^
0_
0`
0a
0b
0c
0d
0e
0f
0g
0h
1i
1j
1k
1l
1m
0n
0o
0p
0q
0r
04!
03!
02!
01!
00!
0/!
0.!
0-!
0,!
0+!
0*!
0)!
0(!
0'!
0&!
0%!
0$!
0#!
0"!
0!!
0~
0}
0|
0{
0z
0y
0x
0w
0v
0u
0t
0s
$end
#10000
1!
1+
0#
14!
1-
0,
1p
1.
1q
#20000
0!
0+
1#
#30000
1!
1+
0#
04!
1r
0-
1,
0p
1*
1"
0.
0q
#40000
0!
0+
1#
#50000
1!
1+
0#
14!
0r
1-
0,
1p
0*
0"
1.
1q
#60000
0!
0+
1#
#70000
1!
1+
0#
04!
1r
0-
1,
0p
1*
1"
0.
0q
#80000
0!
0+
1#
#90000
1!
1+
0#
14!
0r
1-
0,
1p
0*
0"
1.
1q
#100000
0!
0+
1#
#110000
1!
1+
0#
04!
1r
0-
1,
0p
1*
1"
0.
0q
#120000
0!
0+
1#
#130000
1!
1+
0#
14!
0r
1-
0,
1p
0*
0"
1.
1q
#140000
0!
0+
1#
#150000
1!
1+
0#
04!
1r
0-
1,
0p
1*
1"
0.
0q
#160000
0!
0+
1#
#170000
1!
1+
0#
14!
0r
1-
0,
1p
0*
0"
1.
1q
#180000
0!
0+
1#
#190000
1!
1+
0#
04!
1r
0-
1,
0p
1*
1"
0.
0q
#200000
0!
0+
1#
#210000
1!
1+
0#
14!
0r
1-
0,
1p
0*
0"
1.
1q
#220000
0!
0+
1#
#230000
1!
1+
0#
04!
1r
0-
1,
0p
1*
1"
0.
0q
#240000
0!
0+
1#
#250000
1!
1+
0#
14!
0r
1-
0,
1p
0*
0"
1.
1q
#260000
0!
0+
1#
#270000
1!
1+
0#
04!
1r
0-
1,
0p
1*
1"
0.
0q
#280000
0!
0+
1#
#290000
1!
1+
0#
14!
0r
1-
0,
1p
0*
0"
1.
1q
#300000
0!
0+
1#
#310000
1!
1+
0#
04!
1r
0-
1,
0p
1*
1"
0.
0q
#320000
0!
0+
1#
#330000
1!
1+
0#
14!
0r
1-
0,
1p
0*
0"
1.
1q
#340000
0!
0+
1#
#350000
1!
1+
0#
04!
1r
0-
1,
0p
1*
1"
0.
0q
#360000
0!
0+
1#
#370000
1!
1+
0#
14!
0r
1-
0,
1p
0*
0"
1.
1q
#380000
0!
0+
1#
#390000
1!
1+
0#
04!
1r
0-
1,
0p
1*
1"
0.
0q
#400000
0!
0+
1#
#410000
1!
1+
0#
14!
0r
1-
0,
1p
0*
0"
1.
1q
#420000
0!
0+
1#
#430000
1!
1+
0#
04!
1r
0-
1,
0p
1*
1"
0.
0q
#440000
0!
0+
1#
#450000
1!
1+
0#
14!
0r
1-
0,
1p
0*
0"
1.
1q
#460000
0!
0+
1#
#470000
1!
1+
0#
04!
1r
0-
1,
0p
1*
1"
0.
0q
#480000
0!
0+
1#
#490000
1!
1+
0#
14!
0r
1-
0,
1p
0*
0"
1.
1q
#500000
0!
0+
1#
#510000
1!
1+
0#
04!
1r
0-
1,
0p
1*
1"
0.
0q
#520000
0!
0+
1#
#530000
1!
1+
0#
14!
0r
1-
0,
1p
0*
0"
1.
1q
#540000
0!
0+
1#
#550000
1!
1+
0#
04!
1r
0-
1,
0p
1*
1"
0.
0q
#560000
0!
0+
1#
#570000
1!
1+
0#
14!
0r
1-
0,
1p
0*
0"
1.
1q
#580000
0!
0+
1#
#590000
1!
1+
0#
04!
1r
0-
1,
0p
1*
1"
0.
0q
#600000
0!
0+
1#
#610000
1!
1+
0#
14!
0r
1-
0,
1p
0*
0"
1.
1q
#620000
0!
0+
1#
#630000
1!
1+
0#
04!
1r
0-
1,
0p
1*
1"
0.
0q
#640000
0!
0+
1#
#650000
1!
1+
0#
14!
0r
1-
0,
1p
0*
0"
1.
1q
#660000
0!
0+
1#
#670000
1!
1+
0#
04!
1r
0-
1,
0p
1*
1"
0.
0q
#680000
0!
0+
1#
#690000
1!
1+
0#
14!
0r
1-
0,
1p
0*
0"
1.
1q
#700000
0!
0+
1#
#710000
1!
1+
0#
04!
1r
0-
1,
0p
1*
1"
0.
0q
#720000
0!
0+
1#
#730000
1!
1+
0#
14!
0r
1-
0,
1p
0*
0"
1.
1q
#740000
0!
0+
1#
#750000
1!
1+
0#
04!
1r
0-
1,
0p
1*
1"
0.
0q
#760000
0!
0+
1#
#770000
1!
1+
0#
14!
0r
1-
0,
1p
0*
0"
1.
1q
#780000
0!
0+
1#
#790000
1!
1+
0#
04!
1r
0-
1,
0p
1*
1"
0.
0q
#800000
0!
0+
1#
#810000
1!
1+
0#
14!
0r
1-
0,
1p
0*
0"
1.
1q
#820000
0!
0+
1#
#830000
1!
1+
0#
04!
1r
0-
1,
0p
1*
1"
0.
0q
#840000
0!
0+
1#
#850000
1!
1+
0#
14!
0r
1-
0,
1p
0*
0"
1.
1q
#860000
0!
0+
1#
#870000
1!
1+
0#
04!
1r
0-
1,
0p
1*
1"
0.
0q
#880000
0!
0+
1#
#890000
1!
1+
0#
14!
0r
1-
0,
1p
0*
0"
1.
1q
#900000
0!
0+
1#
#910000
1!
1+
0#
04!
1r
0-
1,
0p
1*
1"
0.
0q
#920000
0!
0+
1#
#930000
1!
1+
0#
14!
0r
1-
0,
1p
0*
0"
1.
1q
#940000
0!
0+
1#
#950000
1!
1+
0#
04!
1r
0-
1,
0p
1*
1"
0.
0q
#960000
0!
0+
1#
#970000
1!
1+
0#
14!
0r
1-
0,
1p
0*
0"
1.
1q
#980000
0!
0+
1#
#990000
1!
1+
0#
04!
1r
0-
1,
0p
1*
1"
0.
0q
