simulation/qsim/fakequidditch.msim.vcd
$comment
	File created using the following command:
		vcd file fakequidditch.msim.vcd -direction
$end
$date
	Sat May 04 11:30:30 2019
$end
$version
	ModelSim Version 10.1d
$end
$timescale
	1ps
$end
$scope module fakequidditch_vlg_vec_tst $end
$var reg 1 ! clk $end
$var wire 1 " blue [7] $end
$var wire 1 # blue [6] $end
$var wire 1 $ blue [5] $end
$var wire 1 % blue [4] $end
$var wire 1 & blue [3] $end
$var wire 1 ' blue [2] $end
$var wire 1 ( blue [1] $end
$var wire 1 ) blue [0] $end
$var wire 1 * green [7] $end
$var wire 1 + green [6] $end
$var wire 1 , green [5] $end
$var wire 1 - green [4] $end
$var wire 1 . green [3] $end
$var wire 1 / green [2] $end
$var wire 1 0 green [1] $end
$var wire 1 1 green [0] $end
$var wire 1 2 hor_sync $end
$var wire 1 3 red [7] $end
$var wire 1 4 red [6] $end
$var wire 1 5 red [5] $end
$var wire 1 6 red [4] $end
$var wire 1 7 red [3] $end
$var wire 1 8 red [2] $end
$var wire 1 9 red [1] $end
$var wire 1 : red [0] $end
$var wire 1 ; ver_sync $end
$var wire 1 < sampler $end
$scope module i1 $end
$var wire 1 = gnd $end
$var wire 1 > vcc $end
$var wire 1 ? unknown $end
$var tri1 1 @ devclrn $end
$var tri1 1 A devpor $end
$var tri1 1 B devoe $end
$var wire 1 C red[0]~output_o $end
$var wire 1 D red[1]~output_o $end
$var wire 1 E red[2]~output_o $end
$var wire 1 F red[3]~output_o $end
$var wire 1 G red[4]~output_o $end
$var wire 1 H red[5]~output_o $end
$var wire 1 I red[6]~output_o $end
$var wire 1 J red[7]~output_o $end
$var wire 1 K green[0]~output_o $end
$var wire 1 L green[1]~output_o $end
$var wire 1 M green[2]~output_o $end
$var wire 1 N green[3]~output_o $end
$var wire 1 O green[4]~output_o $end
$var wire 1 P green[5]~output_o $end
$var wire 1 Q green[6]~output_o $end
$var wire 1 R green[7]~output_o $end
$var wire 1 S blue[0]~output_o $end
$var wire 1 T blue[1]~output_o $end
$var wire 1 U blue[2]~output_o $end
$var wire 1 V blue[3]~output_o $end
$var wire 1 W blue[4]~output_o $end
$var wire 1 X blue[5]~output_o $end
$var wire 1 Y blue[6]~output_o $end
$var wire 1 Z blue[7]~output_o $end
$var wire 1 [ hor_sync~output_o $end
$var wire 1 \ ver_sync~output_o $end
$var wire 1 ] clk~input_o $end
$var wire 1 ^ cd|Add1~21_sumout $end
$var wire 1 _ cd|Add1~22 $end
$var wire 1 ` cd|Add1~17_sumout $end
$var wire 1 a cd|Add1~18 $end
$var wire 1 b cd|Add1~13_sumout $end
$var wire 1 c cd|Add1~14 $end
$var wire 1 d cd|Add1~9_sumout $end
$var wire 1 e cd|Add1~10 $end
$var wire 1 f cd|Add1~5_sumout $end
$var wire 1 g cd|Add1~6 $end
$var wire 1 h cd|Add1~1_sumout $end
$var wire 1 i cd|Equal0~0_combout $end
$var wire 1 j cd|Add1~2 $end
$var wire 1 k cd|Add1~125_sumout $end
$var wire 1 l cd|Add1~126 $end
$var wire 1 m cd|Add1~121_sumout $end
$var wire 1 n cd|Add1~122 $end
$var wire 1 o cd|Add1~117_sumout $end
$var wire 1 p cd|Add1~118 $end
$var wire 1 q cd|Add1~113_sumout $end
$var wire 1 r cd|Add1~114 $end
$var wire 1 s cd|Add1~109_sumout $end
$var wire 1 t cd|Add1~110 $end
$var wire 1 u cd|Add1~105_sumout $end
$var wire 1 v cd|Add1~106 $end
$var wire 1 w cd|Add1~101_sumout $end
$var wire 1 x cd|Add1~102 $end
$var wire 1 y cd|Add1~97_sumout $end
$var wire 1 z cd|Add1~98 $end
$var wire 1 { cd|Add1~93_sumout $end
$var wire 1 | cd|Add1~94 $end
$var wire 1 } cd|Add1~89_sumout $end
$var wire 1 ~ cd|Add1~90 $end
$var wire 1 !! cd|Add1~85_sumout $end
$var wire 1 "! cd|Add1~86 $end
$var wire 1 #! cd|Add1~81_sumout $end
$var wire 1 $! cd|Add1~82 $end
$var wire 1 %! cd|Add1~77_sumout $end
$var wire 1 &! cd|Add1~78 $end
$var wire 1 '! cd|Add1~73_sumout $end
$var wire 1 (! cd|Add1~74 $end
$var wire 1 )! cd|Add1~69_sumout $end
$var wire 1 *! cd|Add1~70 $end
$var wire 1 +! cd|Add1~65_sumout $end
$var wire 1 ,! cd|Add1~66 $end
$var wire 1 -! cd|Add1~61_sumout $end
$var wire 1 .! cd|Add1~62 $end
$var wire 1 /! cd|Add1~57_sumout $end
$var wire 1 0! cd|Add1~58 $end
$var wire 1 1! cd|Add1~53_sumout $end
$var wire 1 2! cd|Add1~54 $end
$var wire 1 3! cd|Add1~49_sumout $end
$var wire 1 4! cd|Add1~50 $end
$var wire 1 5! cd|Add1~45_sumout $end
$var wire 1 6! cd|Add1~46 $end
$var wire 1 7! cd|Add1~41_sumout $end
$var wire 1 8! cd|Add1~42 $end
$var wire 1 9! cd|Add1~37_sumout $end
$var wire 1 :! cd|Add1~38 $end
$var wire 1 ;! cd|Add1~33_sumout $end
$var wire 1 <! cd|Add1~34 $end
$var wire 1 =! cd|Add1~29_sumout $end
$var wire 1 >! cd|Add1~30 $end
$var wire 1 ?! cd|Add1~25_sumout $end
$var wire 1 @! cd|Equal0~1_combout $end
$var wire 1 A! cd|Equal0~2_combout $end
$var wire 1 B! cd|Equal0~3_combout $end
$var wire 1 C! cd|Equal0~4_combout $end
$var wire 1 D! cd|Equal0~5_combout $end
$var wire 1 E! cd|Equal0~6_combout $end
$var wire 1 F! cd|clk_out~q $end
$var wire 1 G! vga_ver|Add0~18 $end
$var wire 1 H! vga_ver|Add0~5_sumout $end
$var wire 1 I! vga_ver|Add0~6 $end
$var wire 1 J! vga_ver|Add0~2 $end
$var wire 1 K! vga_ver|Add0~25_sumout $end
$var wire 1 L! vga_hor|Add0~25_sumout $end
$var wire 1 M! vga_hor|current_pixel~6_combout $end
$var wire 1 N! vga_hor|Add0~26 $end
$var wire 1 O! vga_hor|Add0~29_sumout $end
$var wire 1 P! vga_hor|current_pixel~7_combout $end
$var wire 1 Q! vga_hor|Add0~30 $end
$var wire 1 R! vga_hor|Add0~33_sumout $end
$var wire 1 S! vga_hor|current_pixel~8_combout $end
$var wire 1 T! vga_hor|Add0~34 $end
$var wire 1 U! vga_hor|Add0~37_sumout $end
$var wire 1 V! vga_hor|current_pixel~9_combout $end
$var wire 1 W! vga_hor|Add0~38 $end
$var wire 1 X! vga_hor|Add0~5_sumout $end
$var wire 1 Y! vga_hor|current_pixel~1_combout $end
$var wire 1 Z! vga_hor|LessThan0~1_combout $end
$var wire 1 [! vga_hor|Add0~6 $end
$var wire 1 \! vga_hor|Add0~9_sumout $end
$var wire 1 ]! vga_hor|current_pixel~2_combout $end
$var wire 1 ^! vga_hor|Add0~10 $end
$var wire 1 _! vga_hor|Add0~13_sumout $end
$var wire 1 `! vga_hor|current_pixel~3_combout $end
$var wire 1 a! vga_hor|Add0~14 $end
$var wire 1 b! vga_hor|Add0~1_sumout $end
$var wire 1 c! vga_hor|current_pixel~0_combout $end
$var wire 1 d! vga_hor|LessThan0~0_combout $end
$var wire 1 e! vga_hor|Add0~2 $end
$var wire 1 f! vga_hor|Add0~18 $end
$var wire 1 g! vga_hor|Add0~21_sumout $end
$var wire 1 h! vga_hor|current_pixel~5_combout $end
$var wire 1 i! vga_hor|Add0~17_sumout $end
$var wire 1 j! vga_hor|current_pixel~4_combout $end
$var wire 1 k! vga_hor|LessThan0~2_combout $end
$var wire 1 l! vga_hor|next_line~q $end
$var wire 1 m! vga_ver|Add0~26 $end
$var wire 1 n! vga_ver|Add0~29_sumout $end
$var wire 1 o! vga_ver|Add0~30 $end
$var wire 1 p! vga_ver|Add0~33_sumout $end
$var wire 1 q! vga_ver|Add0~34 $end
$var wire 1 r! vga_ver|Add0~37_sumout $end
$var wire 1 s! vga_ver|LessThan0~0_combout $end
$var wire 1 t! vga_cont|LessThan4~2_combout $end
$var wire 1 u! vga_ver|Add0~13_sumout $end
$var wire 1 v! vga_ver|Add0~14 $end
$var wire 1 w! vga_ver|Add0~9_sumout $end
$var wire 1 x! vga_ver|current_line~1_combout $end
$var wire 1 y! vga_ver|Add0~10 $end
$var wire 1 z! vga_ver|Add0~21_sumout $end
$var wire 1 {! vga_ver|Add0~22 $end
$var wire 1 |! vga_ver|Add0~17_sumout $end
$var wire 1 }! vga_ver|Add0~1_sumout $end
$var wire 1 ~! vga_ver|current_line~0_combout $end
$var wire 1 !" vga_cont|LessThan4~0_combout $end
$var wire 1 "" vga_cont|LessThan4~1_combout $end
$var wire 1 #" vga_cont|red[0]~0_combout $end
$var wire 1 $" vga_cont|red[0]~1_combout $end
$var wire 1 %" vga_cont|LessThan0~0_combout $end
$var wire 1 &" vga_cont|LessThan1~0_combout $end
$var wire 1 '" cd|counter_clk [31] $end
$var wire 1 (" cd|counter_clk [30] $end
$var wire 1 )" cd|counter_clk [29] $end
$var wire 1 *" cd|counter_clk [28] $end
$var wire 1 +" cd|counter_clk [27] $end
$var wire 1 ," cd|counter_clk [26] $end
$var wire 1 -" cd|counter_clk [25] $end
$var wire 1 ." cd|counter_clk [24] $end
$var wire 1 /" cd|counter_clk [23] $end
$var wire 1 0" cd|counter_clk [22] $end
$var wire 1 1" cd|counter_clk [21] $end
$var wire 1 2" cd|counter_clk [20] $end
$var wire 1 3" cd|counter_clk [19] $end
$var wire 1 4" cd|counter_clk [18] $end
$var wire 1 5" cd|counter_clk [17] $end
$var wire 1 6" cd|counter_clk [16] $end
$var wire 1 7" cd|counter_clk [15] $end
$var wire 1 8" cd|counter_clk [14] $end
$var wire 1 9" cd|counter_clk [13] $end
$var wire 1 :" cd|counter_clk [12] $end
$var wire 1 ;" cd|counter_clk [11] $end
$var wire 1 <" cd|counter_clk [10] $end
$var wire 1 =" cd|counter_clk [9] $end
$var wire 1 >" cd|counter_clk [8] $end
$var wire 1 ?" cd|counter_clk [7] $end
$var wire 1 @" cd|counter_clk [6] $end
$var wire 1 A" cd|counter_clk [5] $end
$var wire 1 B" cd|counter_clk [4] $end
$var wire 1 C" cd|counter_clk [3] $end
$var wire 1 D" cd|counter_clk [2] $end
$var wire 1 E" cd|counter_clk [1] $end
$var wire 1 F" cd|counter_clk [0] $end
$var wire 1 G" vga_ver|current_line [9] $end
$var wire 1 H" vga_ver|current_line [8] $end
$var wire 1 I" vga_ver|current_line [7] $end
$var wire 1 J" vga_ver|current_line [6] $end
$var wire 1 K" vga_ver|current_line [5] $end
$var wire 1 L" vga_ver|current_line [4] $end
$var wire 1 M" vga_ver|current_line [3] $end
$var wire 1 N" vga_ver|current_line [2] $end
$var wire 1 O" vga_ver|current_line [1] $end
$var wire 1 P" vga_ver|current_line [0] $end
$var wire 1 Q" vga_hor|current_pixel [9] $end
$var wire 1 R" vga_hor|current_pixel [8] $end
$var wire 1 S" vga_hor|current_pixel [7] $end
$var wire 1 T" vga_hor|current_pixel [6] $end
$var wire 1 U" vga_hor|current_pixel [5] $end
$var wire 1 V" vga_hor|current_pixel [4] $end
$var wire 1 W" vga_hor|current_pixel [3] $end
$var wire 1 X" vga_hor|current_pixel [2] $end
$var wire 1 Y" vga_hor|current_pixel [1] $end
$var wire 1 Z" vga_hor|current_pixel [0] $end
$upscope $end
$upscope $end
$enddefinitions $end
#0
$dumpvars
0!
0)
0(
0'
0&
0%
0$
0#
0"
01
00
0/
0.
0-
0,
0+
0*
12
0:
09
08
07
06
05
04
03
1;
x<
0=
1>
x?
1@
1A
1B
0C
0D
0E
0F
0G
0H
0I
0J
0K
0L
0M
0N
0O
0P
0Q
0R
0S
0T
0U
0V
0W
0X
0Y
0Z
1[
1\
0]
1^
0_
0`
0a
0b
0c
0d
0e
0f
0g
0h
0i
0j
0k
0l
0m
0n
0o
0p
0q
0r
0s
0t
0u
0v
0w
0x
0y
0z
0{
0|
0}
0~
0!!
0"!
0#!
0$!
0%!
0&!
0'!
0(!
0)!
0*!
0+!
0,!
0-!
0.!
0/!
00!
01!
02!
03!
04!
05!
06!
07!
08!
09!
0:!
0;!
0<!
0=!
0>!
0?!
1@!
1A!
1B!
1C!
1D!
0E!
0F!
0G!
0H!
0I!
0J!
0K!
0L!
1M!
1N!
0O!
1P!
1Q!
0R!
1S!
1T!
0U!
1V!
1W!
1X!
1Y!
0Z!
0[!
0\!
0]!
0^!
0_!
0`!
0a!
1b!
0c!
0d!
0e!
0f!
0g!
0h!
0i!
0j!
0k!
0l!
0m!
0n!
0o!
0p!
0q!
0r!
0s!
0t!
1u!
0v!
1w!
0x!
0y!
0z!
0{!
0|!
1}!
0~!
1!"
1""
1#"
0$"
1%"
1&"
0F"
0E"
0D"
0C"
0B"
0A"
0@"
0?"
0>"
0="
0<"
0;"
0:"
09"
08"
07"
06"
05"
04"
03"
02"
01"
00"
0/"
0."
0-"
0,"
0+"
0*"
0)"
0("
0'"
0P"
0O"
0N"
0M"
0L"
0K"
0J"
0I"
0H"
0G"
0Z"
0Y"
0X"
0W"
0V"
0U"
0T"
0S"
0R"
0Q"
$end
#500
1!
1]
0<
1F"
1_
0^
1i
1`
1E!
#1000
0!
0]
1<
#1500
1!
1]
0<
1F!
0F"
0_
1^
0i
0`
0E!
1V"
1W"
1X"
1Y"
1Z"
1[!
0X!
0#"
0W!
1U!
0T!
1R!
0Q!
1O!
0N!
1L!
1\!
0[!
1X!
0U!
0R!
0O!
0Y!
0V!
0S!
0P!
0M!
0\!
1]!
1Y!
1V!
1S!
1P!
0]!
#2000
0!
0]
1<
#2500
1!
1]
0<
0F!
1F"
1_
0^
1i
1`
1E!
#3000
0!
0]
1<
#3500
1!
1]
0<
1F!
0F"
0_
1^
0i
0`
0E!
0Z"
1N!
0L!
1O!
1M!
0P!
#4000
0!
0]
1<
#4500
1!
1]
0<
0F!
1F"
1_
0^
1i
1`
1E!
#5000
0!
0]
1<
#5500
1!
1]
0<
1F!
0F"
0_
1^
0i
0`
0E!
0Y"
1Z"
1Q!
0O!
0N!
1L!
1R!
0Q!
1O!
1P!
0M!
0R!
0S!
0P!
1S!
#6000
0!
0]
1<
#6500
1!
1]
0<
0F!
1F"
1_
0^
1i
1`
1E!
#7000
0!
0]
1<
#7500
1!
1]
0<
1F!
0F"
0_
1^
0i
0`
0E!
0Z"
1N!
0L!
1Q!
0O!
1M!
1R!
1P!
0S!
#8000
0!
0]
1<
#8500
1!
1]
0<
0F!
1F"
1_
0^
1i
1`
1E!
#9000
0!
0]
1<
#9500
1!
1]
0<
1F!
0F"
0_
1^
0i
0`
0E!
0X"
1Y"
1Z"
1T!
0R!
0Q!
1O!
0N!
1L!
1U!
0T!
1R!
0O!
1S!
0P!
0M!
0U!
0V!
0S!
1P!
1V!
#10000
0!
0]
1<
#10500
1!
1]
0<
0F!
1F"
1_
0^
1i
1`
1E!
#11000
0!
0]
1<
#11500
1!
1]
0<
1F!
0F"
0_
1^
0i
0`
0E!
0Z"
1N!
0L!
1O!
1M!
0P!
#12000
0!
0]
1<
#12500
1!
1]
0<
0F!
1F"
1_
0^
1i
1`
1E!
#13000
0!
0]
1<
#13500
1!
1]
0<
1F!
0F"
0_
1^
0i
0`
0E!
0Y"
1Z"
1Q!
0O!
0N!
1L!
1T!
0R!
0Q!
1O!
1P!
0M!
1U!
0T!
1R!
1S!
0P!
0U!
0V!
0S!
1V!
#14000
0!
0]
1<
#14500
1!
1]
0<
0F!
1F"
1_
0^
1i
1`
1E!
#15000
0!
0]
1<
#15500
1!
1]
0<
1F!
0F"
0_
1^
0i
0`
0E!
0Z"
1N!
0L!
1Q!
0O!
1M!
1T!
0R!
1P!
1U!
1S!
0V!
#16000
0!
0]
1<
#16500
1!
1]
0<
0F!
1F"
1_
0^
1i
1`
1E!
#17000
0!
0]
1<
#17500
1!
1]
0<
1F!
0F"
0_
1^
0i
0`
0E!
0W"
1X"
1Y"
1Z"
1W!
0U!
0T!
1R!
0Q!
1O!
0N!
1L!
1[!
0X!
0W!
1U!
0R!
0O!
1V!
0S!
0P!
0M!
1\!
0[!
1X!
0Y!
0V!
1S!
1P!
0\!
1]!
1Y!
0]!
#18000
0!
0]
1<
#18500
1!
1]
0<
0F!
1F"
1_
0^
1i
1`
1E!
#19000
0!
0]
1<
#19500
1!
1]
0<
1F!
0F"
0_
1^
0i
0`
0E!
0Z"
1N!
0L!
1O!
1M!
0P!
#20000
0!
0]
1<
#20500
1!
1]
0<
0F!
1F"
1_
0^
1i
1`
1E!
#21000
0!
0]
1<
#21500
1!
1]
0<
1F!
0F"
0_
1^
0i
0`
0E!
0Y"
1Z"
1Q!
0O!
0N!
1L!
1R!
0Q!
1O!
1P!
0M!
0R!
0S!
0P!
1S!
#22000
0!
0]
1<
#22500
1!
1]
0<
0F!
1F"
1_
0^
1i
1`
1E!
#23000
0!
0]
1<
#23500
1!
1]
0<
1F!
0F"
0_
1^
0i
0`
0E!
0Z"
1N!
0L!
1Q!
0O!
1M!
1R!
1P!
0S!
#24000
0!
0]
1<
#24500
1!
1]
0<
0F!
1F"
1_
0^
1i
1`
1E!
#25000
0!
0]
1<
#25500
1!
1]
0<
1F!
0F"
0_
1^
0i
0`
0E!
0X"
1Y"
1Z"
1T!
0R!
0Q!
1O!
0N!
1L!
1W!
0U!
0T!
1R!
0O!
1S!
0P!
0M!
1[!
0X!
0W!
1U!
1V!
0S!
1P!
1\!
0[!
1X!
0Y!
0V!
0\!
1]!
1Y!
0]!
#26000
0!
0]
1<
#26500
1!
1]
0<
0F!
1F"
1_
0^
1i
1`
1E!
#27000
0!
0]
1<
#27500
1!
1]
0<
1F!
0F"
0_
1^
0i
0`
0E!
0Z"
1N!
0L!
1O!
1M!
0P!
#28000
0!
0]
1<
#28500
1!
1]
0<
0F!
1F"
1_
0^
1i
1`
1E!
#29000
0!
0]
1<
#29500
1!
1]
0<
1F!
0F"
0_
1^
0i
0`
0E!
0Y"
1Z"
1Q!
0O!
0N!
1L!
1T!
0R!
0Q!
1O!
1P!
0M!
1W!
0U!
0T!
1R!
1S!
0P!
1[!
0X!
0W!
1U!
1V!
0S!
1\!
0[!
1X!
0Y!
0V!
0\!
1]!
1Y!
0]!
#30000
0!
0]
1<
#30500
1!
1]
0<
0F!
1F"
1_
0^
1i
1`
1E!
#31000
0!
0]
1<
#31500
1!
1]
0<
1F!
0F"
0_
1^
0i
0`
0E!
0Z"
1N!
0L!
1Z!
1Q!
0O!
1M!
1T!
0R!
1P!
1W!
0U!
1S!
1[!
0X!
1V!
1\!
0Y!
1]!
#32000
0!
0]
1<
#32500
1!
1]
0<
0F!
1F"
1_
0^
1i
1`
1E!
#33000
0!
0]
1<
#33500
1!
1]
0<
1F!
0F"
0_
1^
0i
0`
0E!
1U"
0V"
1W"
1X"
1Y"
1Z"
1^!
0\!
0[!
1X!
0Z!
0W!
1U!
0T!
1R!
0Q!
1O!
0N!
1L!
1_!
0^!
1\!
0X!
0U!
0R!
0O!
0]!
1Y!
0M!
0P!
0S!
0V!
0_!
1`!
1]!
0Y!
1V!
1S!
1P!
0`!
#34000
0!
0]
1<
#34500
1!
1]
0<
0F!
1F"
1_
0^
1i
1`
1E!
#35000
0!
0]
1<
#35500
1!
1]
0<
1F!
0F"
0_
1^
0i
0`
0E!
0Z"
1N!
0L!
1O!
1M!
0P!
#36000
0!
0]
1<
#36500
1!
1]
0<
0F!
1F"
1_
0^
1i
1`
1E!
#37000
0!
0]
1<
#37500
1!
1]
0<
1F!
0F"
0_
1^
0i
0`
0E!
0Y"
1Z"
1Q!
0O!
0N!
1L!
1R!
0Q!
1O!
1P!
0M!
0R!
0S!
0P!
1S!
#38000
0!
0]
1<
#38500
1!
1]
0<
0F!
1F"
1_
0^
1i
1`
1E!
#39000
0!
0]
1<
#39500
1!
1]
0<
1F!
0F"
0_
1^
0i
0`
0E!
0Z"
1N!
0L!
1Q!
0O!
1M!
1R!
1P!
0S!
#40000
0!
0]
1<
#40500
1!
1]
0<
0F!
1F"
1_
0^
1i
1`
1E!
#41000
0!
0]
1<
#41500
1!
1]
0<
1F!
0F"
0_
1^
0i
0`
0E!
0X"
1Y"
1Z"
1T!
0R!
0Q!
1O!
0N!
1L!
1U!
0T!
1R!
0O!
1S!
0P!
0M!
0U!
0V!
0S!
1P!
1V!
#42000
0!
0]
1<
#42500
1!
1]
0<
0F!
1F"
1_
0^
1i
1`
1E!
#43000
0!
0]
1<
#43500
1!
1]
0<
1F!
0F"
0_
1^
0i
0`
0E!
0Z"
1N!
0L!
1O!
1M!
0P!
#44000
0!
0]
1<
#44500
1!
1]
0<
0F!
1F"
1_
0^
1i
1`
1E!
#45000
0!
0]
1<
#45500
1!
1]
0<
1F!
0F"
0_
1^
0i
0`
0E!
0Y"
1Z"
1Q!
0O!
0N!
1L!
1T!
0R!
0Q!
1O!
1P!
0M!
1U!
0T!
1R!
1S!
0P!
0U!
0V!
0S!
1V!
#46000
0!
0]
1<
#46500
1!
1]
0<
0F!
1F"
1_
0^
1i
1`
1E!
#47000
0!
0]
1<
#47500
1!
1]
0<
1F!
0F"
0_
1^
0i
0`
0E!
0Z"
1N!
0L!
1Q!
0O!
1M!
1T!
0R!
1P!
1U!
1S!
0V!
#48000
0!
0]
1<
#48500
1!
1]
0<
0F!
1F"
1_
0^
1i
1`
1E!
#49000
0!
0]
1<
#49500
1!
1]
0<
1F!
0F"
0_
1^
0i
0`
0E!
0W"
1X"
1Y"
1Z"
1W!
0U!
0T!
1R!
0Q!
1O!
0N!
1L!
1X!
0W!
1U!
0R!
0O!
1V!
0S!
0P!
0M!
0X!
1Y!
0V!
1S!
1P!
0Y!
#50000
0!
0]
1<
#50500
1!
1]
0<
0F!
1F"
1_
0^
1i
1`
1E!
#51000
0!
0]
1<
#51500
1!
1]
0<
1F!
0F"
0_
1^
0i
0`
0E!
0Z"
1N!
0L!
1O!
1M!
0P!
#52000
0!
0]
1<
#52500
1!
1]
0<
0F!
1F"
1_
0^
1i
1`
1E!
#53000
0!
0]
1<
#53500
1!
1]
0<
1F!
0F"
0_
1^
0i
0`
0E!
0Y"
1Z"
1Q!
0O!
0N!
1L!
1R!
0Q!
1O!
1P!
0M!
0R!
0S!
0P!
1S!
#54000
0!
0]
1<
#54500
1!
1]
0<
0F!
1F"
1_
0^
1i
1`
1E!
#55000
0!
0]
1<
#55500
1!
1]
0<
1F!
0F"
0_
1^
0i
0`
0E!
0Z"
1N!
0L!
1Q!
0O!
1M!
1R!
1P!
0S!
#56000
0!
0]
1<
#56500
1!
1]
0<
0F!
1F"
1_
0^
1i
1`
1E!
#57000
0!
0]
1<
#57500
1!
1]
0<
1F!
0F"
0_
1^
0i
0`
0E!
0X"
1Y"
1Z"
1T!
0R!
0Q!
1O!
0N!
1L!
1W!
0U!
0T!
1R!
0O!
1S!
0P!
0M!
1X!
0W!
1U!
1V!
0S!
1P!
0X!
1Y!
0V!
0Y!
#58000
0!
0]
1<
#58500
1!
1]
0<
0F!
1F"
1_
0^
1i
1`
1E!
#59000
0!
0]
1<
#59500
1!
1]
0<
1F!
0F"
0_
1^
0i
0`
0E!
0Z"
1N!
0L!
1O!
1M!
0P!
#60000
0!
0]
1<
#60500
1!
1]
0<
0F!
1F"
1_
0^
1i
1`
1E!
#61000
0!
0]
1<
#61500
1!
1]
0<
1F!
0F"
0_
1^
0i
0`
0E!
0Y"
1Z"
1Q!
0O!
0N!
1L!
1T!
0R!
0Q!
1O!
1P!
0M!
1W!
0U!
0T!
1R!
1S!
0P!
1X!
0W!
1U!
1V!
0S!
0X!
1Y!
0V!
0Y!
#62000
0!
0]
1<
#62500
1!
1]
0<
0F!
1F"
1_
0^
1i
1`
1E!
#63000
0!
0]
1<
#63500
1!
1]
0<
1F!
0F"
0_
1^
0i
0`
0E!
0Z"
1N!
0L!
1Q!
0O!
1M!
1T!
0R!
1P!
1W!
0U!
1S!
1X!
1V!
1Y!
#64000
0!
0]
1<
#64500
1!
1]
0<
0F!
1F"
1_
0^
1i
1`
1E!
#65000
0!
0]
1<
#65500
1!
1]
0<
1F!
0F"
0_
1^
0i
0`
0E!
1V"
1W"
1X"
1Y"
1Z"
1[!
0X!
0W!
1U!
0T!
1R!
0Q!
1O!
0N!
1L!
1^!
0\!
0[!
1X!
0U!
0R!
0O!
0Y!
0V!
0S!
0P!
0M!
1_!
0^!
1\!
0]!
1Y!
1V!
1S!
1P!
0_!
1`!
1]!
0`!
#66000
0!
0]
1<
#66500
1!
1]
0<
0F!
1F"
1_
0^
1i
1`
1E!
#67000
0!
0]
1<
#67500
1!
1]
0<
1F!
0F"
0_
1^
0i
0`
0E!
0Z"
1N!
0L!
1O!
1M!
0P!
#68000
0!
0]
1<
#68500
1!
1]
0<
0F!
1F"
1_
0^
1i
1`
1E!
#69000
0!
0]
1<
#69500
1!
1]
0<
1F!
0F"
0_
1^
0i
0`
0E!
0Y"
1Z"
1Q!
0O!
0N!
1L!
1R!
0Q!
1O!
1P!
0M!
0R!
0S!
0P!
1S!
#70000
0!
0]
1<
#70500
1!
1]
0<
0F!
1F"
1_
0^
1i
1`
1E!
#71000
0!
0]
1<
#71500
1!
1]
0<
1F!
0F"
0_
1^
0i
0`
0E!
0Z"
1N!
0L!
1Q!
0O!
1M!
1R!
1P!
0S!
#72000
0!
0]
1<
#72500
1!
1]
0<
0F!
1F"
1_
0^
1i
1`
1E!
#73000
0!
0]
1<
#73500
1!
1]
0<
1F!
0F"
0_
1^
0i
0`
0E!
0X"
1Y"
1Z"
1T!
0R!
0Q!
1O!
0N!
1L!
1U!
0T!
1R!
0O!
1S!
0P!
0M!
0U!
0V!
0S!
1P!
1V!
#74000
0!
0]
1<
#74500
1!
1]
0<
0F!
1F"
1_
0^
1i
1`
1E!
#75000
0!
0]
1<
#75500
1!
1]
0<
1F!
0F"
0_
1^
0i
0`
0E!
0Z"
1N!
0L!
1O!
1M!
0P!
#76000
0!
0]
1<
#76500
1!
1]
0<
0F!
1F"
1_
0^
1i
1`
1E!
#77000
0!
0]
1<
#77500
1!
1]
0<
1F!
0F"
0_
1^
0i
0`
0E!
0Y"
1Z"
1Q!
0O!
0N!
1L!
1T!
0R!
0Q!
1O!
1P!
0M!
1U!
0T!
1R!
1S!
0P!
0U!
0V!
0S!
1V!
#78000
0!
0]
1<
#78500
1!
1]
0<
0F!
1F"
1_
0^
1i
1`
1E!
#79000
0!
0]
1<
#79500
1!
1]
0<
1F!
0F"
0_
1^
0i
0`
0E!
0Z"
1N!
0L!
1Q!
0O!
1M!
1T!
0R!
1P!
1U!
1S!
0V!
#80000
0!
0]
1<
#80500
1!
1]
0<
0F!
1F"
1_
0^
1i
1`
1E!
#81000
0!
0]
1<
#81500
1!
1]
0<
1F!
0F"
0_
1^
0i
0`
0E!
0W"
1X"
1Y"
1Z"
1W!
0U!
0T!
1R!
0Q!
1O!
0N!
1L!
1[!
0X!
0W!
1U!
0R!
0O!
1V!
0S!
0P!
0M!
1^!
0\!
0[!
1X!
0Y!
0V!
1S!
1P!
1_!
0^!
1\!
0]!
1Y!
0_!
1`!
1]!
0`!
#82000
0!
0]
1<
#82500
1!
1]
0<
0F!
1F"
1_
0^
1i
1`
1E!
#83000
0!
0]
1<
#83500
1!
1]
0<
1F!
0F"
0_
1^
0i
0`
0E!
0Z"
1N!
0L!
1O!
1M!
0P!
#84000
0!
0]
1<
#84500
1!
1]
0<
0F!
1F"
1_
0^
1i
1`
1E!
#85000
0!
0]
1<
#85500
1!
1]
0<
1F!
0F"
0_
1^
0i
0`
0E!
0Y"
1Z"
1Q!
0O!
0N!
1L!
1R!
0Q!
1O!
1P!
0M!
0R!
0S!
0P!
1S!
#86000
0!
0]
1<
#86500
1!
1]
0<
0F!
1F"
1_
0^
1i
1`
1E!
#87000
0!
0]
1<
#87500
1!
1]
0<
1F!
0F"
0_
1^
0i
0`
0E!
0Z"
1N!
0L!
1Q!
0O!
1M!
1R!
1P!
0S!
#88000
0!
0]
1<
#88500
1!
1]
0<
0F!
1F"
1_
0^
1i
1`
1E!
#89000
0!
0]
1<
#89500
1!
1]
0<
1F!
0F"
0_
1^
0i
0`
0E!
0X"
1Y"
1Z"
1T!
0R!
0Q!
1O!
0N!
1L!
1W!
0U!
0T!
1R!
0O!
1S!
0P!
0M!
1[!
0X!
0W!
1U!
1V!
0S!
1P!
1^!
0\!
0[!
1X!
0Y!
0V!
1_!
0^!
1\!
0]!
1Y!
0_!
1`!
1]!
0`!
#90000
0!
0]
1<
#90500
1!
1]
0<
0F!
1F"
1_
0^
1i
1`
1E!
#91000
0!
0]
1<
#91500
1!
1]
0<
1F!
0F"
0_
1^
0i
0`
0E!
0Z"
1N!
0L!
1O!
1M!
0P!
#92000
0!
0]
1<
#92500
1!
1]
0<
0F!
1F"
1_
0^
1i
1`
1E!
#93000
0!
0]
1<
#93500
1!
1]
0<
1F!
0F"
0_
1^
0i
0`
0E!
0Y"
1Z"
1Q!
0O!
0N!
1L!
1T!
0R!
0Q!
1O!
1P!
0M!
1W!
0U!
0T!
1R!
1S!
0P!
1[!
0X!
0W!
1U!
1V!
0S!
1^!
0\!
0[!
1X!
0Y!
0V!
1_!
0^!
1\!
0]!
1Y!
0_!
1`!
1]!
0`!
#94000
0!
0]
1<
#94500
1!
1]
0<
0F!
1F"
1_
0^
1i
1`
1E!
#95000
0!
0]
1<
#95500
1!
1]
0<
1F!
0F"
0_
1^
0i
0`
0E!
0Z"
1N!
0L!
1Z!
1Q!
0O!
1M!
1T!
0R!
1P!
1W!
0U!
1S!
1[!
0X!
1V!
1^!
0\!
0Y!
1_!
0]!
1`!
#96000
0!
0]
1<
#96500
1!
1]
0<
0F!
1F"
1_
0^
1i
1`
1E!
#97000
0!
0]
1<
